<svg  viewBox="0 0 39 41" version="1.1" xmlns="http://www.w3.org/2000/svg" xmlns:xlink="http://www.w3.org/1999/xlink">

    <defs>
        <rect id="path-1" x="0" y="0" width="34" height="41" rx="2"></rect>
        <mask id="mask-2" maskContentUnits="userSpaceOnUse" maskUnits="objectBoundingBox" x="0" y="0" width="34" height="41" fill="white">
            <use xlink:href="#path-1"></use>
        </mask>
        <circle id="path-3" cx="18" cy="16" r="5"></circle>
        <mask id="mask-4" maskContentUnits="userSpaceOnUse" maskUnits="objectBoundingBox" x="0" y="0" width="10" height="10" fill="white">
            <use xlink:href="#path-3"></use>
        </mask>
        <path d="M27,28 C27,22 20.7614237,20 18,20 C15.2385763,20 9,22 9,28 L27,28 Z" id="path-5"></path>
        <mask id="mask-6" maskContentUnits="userSpaceOnUse" maskUnits="objectBoundingBox" x="0" y="0" width="18" height="8" fill="white">
            <use xlink:href="#path-5"></use>
        </mask>
        <rect id="path-7" x="33" y="6" width="6" height="10"></rect>
        <mask id="mask-8" maskContentUnits="userSpaceOnUse" maskUnits="objectBoundingBox" x="0" y="0" width="6" height="10" fill="white">
            <use xlink:href="#path-7"></use>
        </mask>
        <rect id="path-9" x="33" y="15" width="6" height="10"></rect>
        <mask id="mask-10" maskContentUnits="userSpaceOnUse" maskUnits="objectBoundingBox" x="0" y="0" width="6" height="10" fill="white">
            <use xlink:href="#path-9"></use>
        </mask>
        <rect id="path-11" x="33" y="24" width="6" height="10"></rect>
        <mask id="mask-12" maskContentUnits="userSpaceOnUse" maskUnits="objectBoundingBox" x="0" y="0" width="6" height="10" fill="white">
            <use xlink:href="#path-11"></use>
        </mask>
    </defs>
    <g id="new-landing" stroke="none" stroke-width="1" fill="none" fill-rule="evenodd">
        <g id="Landing--Product" transform="translate(-766.000000, -3360.000000)">
            <g id="tabs" transform="translate(70.000000, 3345.000000)">
                <g id="ico-attendees" transform="translate(696.000000, 15.000000)">
                    <use id="Rectangle-2" stroke="#979797" mask="url(#mask-2)" stroke-width="2" fill="#FFFFFF" xlink:href="#path-1"></use>
                    <use id="Oval-5" stroke="#777777" mask="url(#mask-4)" stroke-width="2" xlink:href="#path-3"></use>
                    <use id="Oval-5-Copy" stroke="#777777" mask="url(#mask-6)" stroke-width="2" xlink:href="#path-5"></use>
                    <path d="M3.5,0.5 L3.5,40.5" id="Line" stroke="#979797" stroke-linecap="square"></path>
                    <use id="Rectangle-4" stroke="#979797" mask="url(#mask-8)" stroke-width="2" xlink:href="#path-7"></use>
                    <use id="Rectangle-4-Copy" stroke="#979797" mask="url(#mask-10)" stroke-width="2" xlink:href="#path-9"></use>
                    <use id="Rectangle-4-Copy-2" stroke="#979797" mask="url(#mask-12)" stroke-width="2" xlink:href="#path-11"></use>
                </g>
            </g>
        </g>
    </g>
</svg>