<svg  viewBox="0 0 43 40" version="1.1" xmlns="http://www.w3.org/2000/svg" xmlns:xlink="http://www.w3.org/1999/xlink">
    <defs>
        <path d="M29.5527554,28.6149178 C29.309972,29.0408802 29.1224653,29.5024343 29,29.989815 C29.4945105,30.235052 29.8344488,30.745052 29.8344488,31.3344488 C29.8344488,31.9238457 29.4945105,32.4338456 29,32.6790827 C29.1224653,33.1664634 29.309972,33.6280174 29.5527554,34.0539799 C29.7803938,33.9147153 30.0480477,33.8344488 30.3344488,33.8344488 C31.162876,33.8344488 31.8344488,34.5060217 31.8344488,35.3344488 C31.8344488,35.62085 31.7541824,35.8885038 31.6149178,36.1161423 C32.0408802,36.3589256 32.5024343,36.5464324 32.989815,36.6688977 C33.235052,36.1743871 33.745052,35.8344488 34.3344488,35.8344488 C34.9238457,35.8344488 35.4338456,36.1743871 35.6790827,36.6688977 C36.1664634,36.5464324 36.6280174,36.3589256 37.0539799,36.1161423 C36.9147153,35.8885038 36.8344488,35.62085 36.8344488,35.3344488 C36.8344488,34.5060217 37.5060217,33.8344488 38.3344488,33.8344488 C38.62085,33.8344488 38.8885038,33.9147153 39.1161423,34.0539799 C39.3589256,33.6280174 39.5464324,33.1664634 39.6688977,32.6790827 C39.1743871,32.4338456 38.8344488,31.9238457 38.8344488,31.3344488 C38.8344488,30.745052 39.1743871,30.235052 39.6688977,29.989815 C39.5464324,29.5024343 39.3589256,29.0408802 39.1161423,28.6149178 C38.8885038,28.7541824 38.62085,28.8344488 38.3344488,28.8344488 C37.5060217,28.8344488 36.8344488,28.162876 36.8344488,27.3344488 C36.8344488,27.0480477 36.9147153,26.7803938 37.0539799,26.5527554 C36.6280174,26.309972 36.1664634,26.1224653 35.6790827,26 C35.4338456,26.4945105 34.9238457,26.8344488 34.3344488,26.8344488 C33.745052,26.8344488 33.235052,26.4945105 32.989815,26 C32.5024343,26.1224653 32.0408802,26.309972 31.6149178,26.5527554 C31.7541824,26.7803938 31.8344488,27.0480477 31.8344488,27.3344488 C31.8344488,28.162876 31.162876,28.8344488 30.3344488,28.8344488 C30.0480477,28.8344488 29.7803938,28.7541824 29.5527554,28.6149178 Z M34.3344488,33.8344488 C35.7151607,33.8344488 36.8344488,32.7151607 36.8344488,31.3344488 C36.8344488,29.953737 35.7151607,28.8344488 34.3344488,28.8344488 C32.953737,28.8344488 31.8344488,29.953737 31.8344488,31.3344488 C31.8344488,32.7151607 32.953737,33.8344488 34.3344488,33.8344488 Z" id="path-1"></path>
        <mask id="mask-2" maskContentUnits="userSpaceOnUse" maskUnits="objectBoundingBox" x="0" y="0" width="10.6688977" height="10.6688977" fill="white">
            <use xlink:href="#path-1"></use>
        </mask>
    </defs>
    <g id="new-landing" stroke="none" stroke-width="1" fill="none" fill-rule="evenodd">
        <g id="Landing--Product" transform="translate(-477.000000, -3361.000000)" stroke="#777777">
            <g id="tabs" transform="translate(70.000000, 3345.000000)">
                <g id="ico-reminders" transform="translate(407.000000, 16.000000)">
                    <path d="M5.57861333,10.4903881 C2.73504,12.1831045 0.580213333,13.4637015 0.580213333,13.4637015 L5.57861333,10.4903881 Z M31.5,5.5 C28.5725333,3.71822388 25.78928,1.88597015 25.1492267,1.48898507 C23.3387733,0.367880597 21.1733867,0.138537313 18.9698667,1.48898507 C18.20016,1.9610597 14.8981333,3.77061194 12,5.5 L31.5,5.5 Z M42.4197867,13.6109701 C42.4197867,13.6109701 40.6826667,11.9354478 37.5,10 L42.4197867,13.6109701 Z" id="Combined-Shape" stroke-linecap="round" stroke-linejoin="round"></path>
                    <polyline id="Shape" stroke-linecap="round" stroke-linejoin="round" fill="#FFFFFF" points="5.5 26.5554851 5.5 5.5 37.5 5.5 37.5 26.5554851"></polyline>
                    <path d="M14.5,11.5 L28.5,11.5" id="Line" stroke-linecap="square"></path>
                    <path d="M14.5,14.5 L28.5,14.5" id="Line-Copy-3" stroke-linecap="square"></path>
                    <path d="M14.5,17.5 L28.5,17.5" id="Line-Copy-4" stroke-linecap="square"></path>
                    <path d="M42.5,13.672554 L42.5,36.2798657 C42.5,38.2362687 41.0073265,39.5 39.0813953,39.5 L3.91860465,39.5 C1.99324651,39.5 0.5,38.2362687 0.5,36.2798657 L0.5,13.6109701 L42.5,13.672554 Z" id="Combined-Shape" stroke-linecap="round" stroke-linejoin="round" fill="#FFFFFF"></path>
                    <use id="Combined-Shape" mask="url(#mask-2)" stroke-width="2" xlink:href="#path-1"></use>
                </g>
            </g>
        </g>
    </g>
</svg>