<svg  viewBox="0 0 41 42" version="1.1" xmlns="http://www.w3.org/2000/svg" xmlns:xlink="http://www.w3.org/1999/xlink">
    <defs>
        <rect id="path-1" x="0" y="0" width="41" height="31" rx="2"></rect>
        <mask id="mask-2" maskContentUnits="userSpaceOnUse" maskUnits="objectBoundingBox" x="0" y="0" width="41" height="31" fill="white">
            <use xlink:href="#path-1"></use>
        </mask>
        <path d="M10,12.0085302 C10,10.8992496 10.9023437,10 11.9945615,10 L29.0054385,10 C30.1070044,10 31,10.9019504 31,12.0085302 L31,19.9914698 C31,21.1007504 30.0987457,22 28.9915802,22 L23.65,22 L20.5,25 L17.35,22 L12.0084198,22 C10.8992002,22 10,21.0980496 10,19.9914698 L10,12.0085302 Z" id="path-3"></path>
        <mask id="mask-4" maskContentUnits="userSpaceOnUse" maskUnits="objectBoundingBox" x="0" y="0" width="21" height="15" fill="white">
            <use xlink:href="#path-3"></use>
        </mask>
    </defs>
    <g id="new-landing" stroke="none" stroke-width="1" fill="none" fill-rule="evenodd">
        <g id="Landing--Product" transform="translate(-465.000000, -1859.000000)">
            <g id="Grey-block" transform="translate(0.000000, 1539.000000)">
                <g id="ico-endorsment" transform="translate(465.000000, 320.000000)">
                    <path d="M0,39.5 L41,39.5" id="Line" stroke="#777777"></path>
                    <use id="Rectangle-5" stroke="#777777" mask="url(#mask-2)" stroke-width="2" fill="#FFFFFF" xlink:href="#path-1"></use>
                    <use id="Rectangle-4" stroke="#777777" mask="url(#mask-4)" stroke-width="2" fill="#F6F6F6" transform="translate(20.500000, 17.500000) scale(-1, 1) translate(-20.500000, -17.500000) " xlink:href="#path-3"></use>
                    <circle id="Oval-5" fill="#777777" cx="3.5" cy="2.5" r="0.5"></circle>
                    <circle id="Oval-5-Copy" fill="#777777" cx="5.5" cy="2.5" r="0.5"></circle>
                    <circle id="Oval-5-Copy-2" fill="#777777" cx="7.5" cy="2.5" r="0.5"></circle>
                    <path d="M0.5,4.5 L39.5,4.5" id="Line" stroke="#777777" stroke-linecap="square"></path>
                    <circle id="Oval-3" stroke="#777777" fill="#F6F6F6" cx="20.5" cy="39.5" r="1.5"></circle>
                    <path d="M20.5,30.5 L20.5,37.5" id="Line" stroke="#777777" stroke-linecap="square"></path>
                    <rect id="Rectangle-29" fill="#777777" x="18" y="2" width="19" height="1"></rect>
                    <path d="M14.5,14.5 L26.5,14.5" id="Line" stroke="#777777" stroke-linecap="square"></path>
                    <path d="M14.5,16.5 L26.5,16.5" id="Line-Copy-7" stroke="#777777" stroke-linecap="square"></path>
                </g>
            </g>
        </g>
    </g>
</svg>